<?xml version="1.0" encoding="UTF-8" standalone="no"?>
<svg
   xmlns:dc="http://purl.org/dc/elements/1.1/"
   xmlns:cc="http://creativecommons.org/ns#"
   xmlns:rdf="http://www.w3.org/1999/02/22-rdf-syntax-ns#"
   xmlns:svg="http://www.w3.org/2000/svg"
   xmlns="http://www.w3.org/2000/svg"
   xmlns:sodipodi="http://sodipodi.sourceforge.net/DTD/sodipodi-0.dtd"
   xmlns:inkscape="http://www.inkscape.org/namespaces/inkscape"
   inkscape:export-ydpi="96"
   inkscape:export-xdpi="96"
   inkscape:export-filename="M:\IMTS\cours-giloop\static\images\favicon.png"
   sodipodi:docname="logoGueulomaton-opt.svg"
   inkscape:version="1.0 (4035a4fb49, 2020-05-01)"
   version="1.1"
   id="svg2"
   viewBox="0 0 120 120"
   height="128"
   width="128">
  <defs
     id="defs4" />
  <sodipodi:namedview
     lock-margins="true"
     units="px"
     inkscape:document-rotation="0"
     inkscape:window-maximized="0"
     inkscape:window-y="26"
     inkscape:window-x="180"
     inkscape:window-height="967"
     inkscape:window-width="1577"
     fit-margin-right="2"
     fit-margin-bottom="2"
     fit-margin-top="2"
     fit-margin-left="2"
     showgrid="false"
     inkscape:current-layer="layer2"
     inkscape:document-units="px"
     inkscape:cy="100.79152"
     inkscape:cx="89.143336"
     inkscape:zoom="2.5591268"
     inkscape:pageshadow="2"
     inkscape:pageopacity="0.0"
     borderopacity="1.0"
     bordercolor="#666666"
     pagecolor="#ffffff"
     id="base" />
  <g
     transform="translate(-4.8718917,-7.1709807)"
     style="display:inline"
     inkscape:label="Violet"
     id="layer2"
     inkscape:groupmode="layer">
    <path
       style="opacity:1;fill:#ff6600;fill-opacity:1;fill-rule:evenodd;stroke:none;stroke-width:1px;stroke-linecap:butt;stroke-linejoin:miter;stroke-opacity:1"
       d="M 56.458718,9.4123166 51.970856,32.87278 20.728296,20.609373 42.649792,49.223985 6.7468917,48.51322 37.1263,62.731728 18.139218,79.260534 45.066394,76.594656 28.323052,99.344358 49.554256,92.235097 55.768425,125.4707 67.851034,92.235097 85.457515,124.40434 81.659962,89.391236 104.78994,97.922423 89.255092,71.973682 115.14664,80.149289 99.956735,64.153265 123.43206,44.24743 92.016635,47.802058 111.00411,16.877153 83.213776,36.249814 80.279369,10.478665 65.434823,35.716639 Z M 75.043343,42.788797 c 0.01451,-0.0017 0.02441,-4.03e-4 0.0291,0.0031 0.150608,0.11504 -0.741655,2.842676 -0.741655,2.842676 0,0 4.610836,-2.080793 4.950491,-1.880909 0.339655,0.199887 -0.559212,3.223119 -0.559212,3.223119 0,0 4.569712,-1.000765 4.763812,-0.743128 0.192457,0.254946 -6.88417,7.835451 -7.549531,8.243877 l -0.193155,0.27665 c 0,3e-6 -15.906571,-8.685465 -18.830311,9.876947 -0.03338,0.816622 0.04983,1.250643 0.155232,1.931032 0.105859,0.681359 0.26894,1.354677 0.489834,2.021012 0.220892,0.665853 0.494612,1.299975 0.823678,1.900248 0.328599,0.600748 0.718746,1.130085 1.169779,1.589261 0.45103,0.460141 0.95631,0.828952 1.515881,1.10463 0.559582,0.275203 1.176623,0.413449 1.852025,0.415573 1.105896,0.0038 2.102184,-0.207027 2.986917,-0.633418 0.884727,-0.425908 1.668827,-0.977594 2.353355,-1.656356 0.684056,-0.677792 1.283495,-1.441345 1.796057,-2.290558 0.512129,-0.848733 0.956517,-1.693589 1.333065,-2.536031 0.376076,-0.841965 0.687353,-1.639813 0.933674,-2.393168 0.246812,-0.753831 0.449883,-1.367295 0.6098,-1.839865 0.0585,-0.472906 0.305095,-1.230526 0.305095,-1.230526 0,0 4.835339,-1.440894 4.927882,-1.137385 0.09253,0.30351 0.134031,0.732555 0.125323,1.28696 -0.0092,0.555366 -0.01533,1.283279 -0.01809,2.185185 -0.01846,1.301795 -0.05062,2.560287 -0.09735,3.772475 -0.04719,1.213144 -0.126478,2.407249 -0.237629,3.582648 -0.111151,1.175873 -0.265713,2.347269 -0.463781,3.515161 -0.197122,1.168375 -0.448208,2.358694 -0.753913,3.570021 -0.174206,0.71028 -0.388908,1.385876 -0.642377,2.02851 -0.253462,0.643117 -0.528768,1.233753 -0.824447,1.772773 -0.29615,0.539029 -0.595632,1.0183 -0.898408,1.438902 -0.303252,0.420602 -0.598693,0.756391 -0.886912,1.007151 -0.691357,0.619058 -1.418509,1.082435 -2.180885,1.390361 -0.762848,0.307911 -1.574716,0.445298 -2.436529,0.413595 -1.106267,-0.03351 -1.985683,-0.21063 -2.638138,-0.530411 -0.652914,-0.320277 -1.147638,-0.695237 -1.4833,-1.125155 -0.336592,-0.429926 -0.554008,-0.867272 -0.65311,-1.31182 -0.09959,-0.443588 -0.148358,-0.806679 -0.147573,-1.087264 0,-0.266624 0.09133,-0.551588 0.271755,-0.853242 0.180423,-0.302606 3.387596,-1.27021 3.451453,-1.061611 0.06432,0.208124 0.102496,0.445812 0.116134,0.713923 0.01315,0.267636 0.02032,0.536015 0.01961,0.803114 0,0.268072 0.0051,0.535793 0.01884,0.803911 0.01315,0.267154 0.05626,0.500678 0.127635,0.702085 0.07089,0.200924 0.17801,0.364295 0.32156,0.491339 0.143118,0.127044 0.344049,0.191387 0.602538,0.192199 0.746913,0.0023 1.347391,-0.238309 1.801807,-0.71906 0.453944,-0.481225 0.80708,-1.155593 1.061703,-2.022981 0.25368,-0.868837 0.423075,-1.910468 0.5063,-3.124462 0.08231,-1.214954 0.126125,-2.56149 0.130698,-4.040444 0.0019,-0.474049 0.0065,-0.943446 0.01492,-1.409298 0.0084,-0.465847 0.0209,-0.928595 0.03679,-1.387202 -0.635389,0.959507 -1.385303,1.867913 -2.249864,2.722704 -0.864558,0.854799 -1.834126,1.606298 -2.906053,2.253463 -1.072373,0.647641 -2.241204,1.161122 -3.506263,1.54151 -1.265539,0.38038 -2.608671,0.568624 -4.030984,0.563954 -1.336324,-0.0046 -2.582557,-0.256817 -3.737394,-0.755363 -1.154831,-0.499513 -2.161594,-1.208612 -3.020654,-2.12875 -0.859524,-0.920145 -1.531724,-2.029107 -2.015686,-3.32534 -0.484898,-1.295749 -0.723601,-2.742246 -0.718655,-4.339587 0.0058,-1.908727 0.276963,-3.778687 0.814093,-5.611552 0.53713,-1.831905 1.278973,-3.568503 2.224958,-5.207033 0.945986,-1.63901 2.068081,-3.147331 3.365225,-4.52626 1.297611,-1.378928 2.705158,-2.568752 4.224542,-3.569625 1.518474,-1.000882 3.119604,-1.779733 4.802147,-2.336337 0.09928,-0.03286 0.198399,-0.06146 0.297815,-0.09235 1.239471,-1.354692 2.757337,-2.974717 2.983092,-3.006458 0.381101,-0.0541 0.63433,2.278721 0.63433,2.278721 -0.01492,-0.0018 5.020792,-2.495122 5.472907,-2.545899 z"
       id="path4160"
       inkscape:connector-curvature="0" />
  </g>
  <metadata
     id="metadata865">
    <rdf:RDF>
      <cc:Work
         rdf:about="">
        <dc:title></dc:title>
      </cc:Work>
    </rdf:RDF>
  </metadata>
</svg>
